[
    {
        "id": 1,
        "name": "Orlando Emard III",
        "status": true,
        "salary": 10943.0,
        "address": "Suite 269 7636 Long Hollow, Bartolettistad, IA 82797",
        "email": "nilsa.zboncak@hotmail.com",
        "phoneNumber": "526.447.9534 x62331",
        "company": "Blanda and Sons",
        "city": "Boganburgh",
        "state": "Iowa",
        "country": "Sierra Leone",
        "zipcode": "78165"
    },
    {
        "id": 2,
        "name": "Juliann Gulgowski",
        "status": true,
        "salary": 7766.0,
        "address": "Apt. 119 24826 Arlie Lodge, Octaviaberg, IN 63357-3807",
        "email": "eduardo.schoen@yahoo.com",
        "phoneNumber": "385-562-6370 x8453",
        "company": "Hamill-Cole",
        "city": "Laneberg",
        "state": "Nebraska",
        "country": "Spain",
        "zipcode": "97979-3504"
    },
    {
        "id": 3,
        "name": "Armand Steuber",
        "status": true,
        "salary": 12312.0,
        "address": "Suite 035 108 Kilback Crossing, Feestport, TX 48886-4831",
        "email": "augustine.hammes@gmail.com",
        "phoneNumber": "711.366.2583 x906",
        "company": "Carter, Cruickshank and Russel",
        "city": "South Portia",
        "state": "Georgia",
        "country": "Czechia",
        "zipcode": "62497"
    },
    {
        "id": 4,
        "name": "Prince Ortiz",
        "status": true,
        "salary": 4151.0,
        "address": "Apt. 827 01836 Stokes Streets, East Romaine, IL 58801-1125",
        "email": "gisela.harris@yahoo.com",
        "phoneNumber": "168.698.6500 x76130",
        "company": "Rutherford Group",
        "city": "Pagacburgh",
        "state": "Minnesota",
        "country": "Sierra Leone",
        "zipcode": "83129"
    },
    {
        "id": 5,
        "name": "Shizue Jast",
        "status": true,
        "salary": 2897.0,
        "address": "2780 MacGyver Tunnel, South Evetteland, IN 03846",
        "email": "janice.keeling@gmail.com",
        "phoneNumber": "1-330-823-6120 x23923",
        "company": "Kreiger, Hoppe and Harber",
        "city": "New Margarito",
        "state": "Oklahoma",
        "country": "Cameroon",
        "zipcode": "24712-4631"
    },
    {
        "id": 6,
        "name": "Salvatore Frami",
        "status": true,
        "salary": 5141.0,
        "address": "45875 Collier Common, Lemuelport, FL 46006",
        "email": "owen.kris@hotmail.com",
        "phoneNumber": "712.024.0957",
        "company": "Spencer and Sons",
        "city": "Port Erich",
        "state": "Indiana",
        "country": "Tunisia",
        "zipcode": "21718"
    },
    {
        "id": 7,
        "name": "Vallie Ruecker",
        "status": true,
        "salary": 4646.0,
        "address": "Suite 289 0135 Wiegand Streets, Kubchester, HI 94782",
        "email": "darius.douglas@gmail.com",
        "phoneNumber": "1-244-730-2222 x924",
        "company": "Hackett-Aufderhar",
        "city": "South George",
        "state": "Alabama",
        "country": "Viet Nam",
        "zipcode": "70946"
    },
    {
        "id": 8,
        "name": "Jody Romaguera",
        "status": true,
        "salary": 4239.0,
        "address": "896 Beahan Trafficway, North Irvingmouth, SD 67675-4420",
        "email": "hoyt.hamill@hotmail.com",
        "phoneNumber": "(757) 729-0355",
        "company": "Blick Group",
        "city": "Brekkemouth",
        "state": "Missouri",
        "country": "Nepal",
        "zipcode": "70989"
    },
    {
        "id": 9,
        "name": "Alissa Streich",
        "status": true,
        "salary": 8940.0,
        "address": "Suite 192 38812 Bernhard Circle, Conradhaven, VT 59279-1382",
        "email": "lael.price@hotmail.com",
        "phoneNumber": "931.412.4985 x7261",
        "company": "Heidenreich-O'Reilly",
        "city": "North Classie",
        "state": "Alaska",
        "country": "Bahamas",
        "zipcode": "10881-2367"
    },
    {
        "id": 10,
        "name": "Dr. Ludivina Schiller",
        "status": true,
        "salary": 3885.0,
        "address": "37586 Waelchi Mount, West Kerry, MS 05356-7409",
        "email": "lois.schultz@hotmail.com",
        "phoneNumber": "888-237-7093 x2351",
        "company": "Howell Inc",
        "city": "Nienowburgh",
        "state": "Maine",
        "country": "Colombia",
        "zipcode": "49927-2660"
    }
]